{
    "apiVersion": "1.0.5",
    "swaggerVersion": "1.2",
    "basePath": "/",
    "resourcePath": "/sso/",
    "produces":["application/json", "application/xml", "text/plain", "text/html"],

    "apis":[
        {
            "path":"/sso/getTicket",
            "operations":[
                {
                    "method":"GET",
                    "summary":"SSO Get Ticket",
                    "notes":"",
                    "nickname":"sso_get_ticket",
                    "parameters":[
                        {"name":"AppKey", "description":"AppKey", "type": "string", "paramType": "query", "required": false, "allowMultiple": false},
                        {"name":"OrganId", "description":"OrganId", "type": "integer", "paramType": "query", "required": false, "allowMultiple": false},
                        {"name":"ClinicID", "description":"ClinicID", "type": "integer", "paramType": "query", "required": true, "allowMultiple": false},
                        {"name":"PcpId", "description":"PcpId", "type": "integer", "paramType": "query", "required": false, "allowMultiple": false},
                        {"name":"PcpName", "description":"PcpName", "type": "string", "paramType": "query", "required": false, "allowMultiple": false},
                        {"name":"HostIP", "description":"HostIP", "type": "string", "paramType": "query", "required": false, "allowMultiple": false}
                    ]
                }
            ]
        },
      {
        "path":"sso/login",
        "operations":[
                {
                    "method":"GET",
                    "summary":"SSO Login",
                    "notes":"",
                    "nickname":"sso_login",
                    "parameters":[
                        {"name":"Token", "description":"Token", "type": "string", "paramType": "query", "required": false, "allowMultiple": false},
                        {"name":"Page", "description":"Page", "type": "integer", "paramType": "query", "required": false, "allowMultiple": false},
                        {"name":"HiddenMenu", "description":"HiddenMenu", "type": "integer", "paramType": "query", "required": false, "allowMultiple": false},
                        {"name":"AppKey", "description":"AppKey", "type": "string", "paramType": "query", "required": false, "allowMultiple": false}
                    ]
                }
            ]
      }
    ]
}